dplyr
…
## Parsed with column specification:
## cols(
##   Root = col_double(),
##   Fruit = col_double(),
##   Grazing = col_character()
## )

compensation2 <- read.csv("compensation.csv")

compensation

## # A tibble: 40 x 3
##     Root Fruit Grazing 
##    <dbl> <dbl> <chr>   
##  1  6.22  59.8 Ungrazed
##  2  6.49  61.0 Ungrazed
##  3  4.92  14.7 Ungrazed
##  4  5.13  19.3 Ungrazed
##  5  5.42  34.2 Ungrazed
##  6  5.36  35.5 Ungrazed
##  7  7.61  87.7 Ungrazed
##  8  6.35  63.2 Ungrazed
##  9  4.97  24.2 Ungrazed
## 10  6.93  64.3 Ungrazed
## #  with 30 more rows
…
# make compensation$Grazing "factor"
compensation$Grazing <- factor(compensation$Grazing, levels = c("Ungrazed", "Grazed"))

# dplyr
# extract from column
# select()
dplyr::select(compensation, Fruit)

## # A tibble: 40 x 1
##    Fruit
##    <dbl>
##  1  59.8
##  2  61.0
##  3  14.7
##  4  19.3
##  5  34.2
##  6  35.5
##  7  87.7
##  8  63.2
##  9  24.2
## 10  64.3
## #  with 30 more rows

dplyr::select(compensation, -Fruit)

## # A tibble: 40 x 2
##     Root Grazing 
##    <dbl> <fct>   
##  1  6.22 Ungrazed
##  2  6.49 Ungrazed
##  3  4.92 Ungrazed
##  4  5.13 Ungrazed
##  5  5.42 Ungrazed
##  6  5.36 Ungrazed
##  7  7.61 Ungrazed
##  8  6.35 Ungrazed
##  9  4.97 Ungrazed
## 10  6.93 Ungrazed
## #  with 30 more rows

# base R
# this is also convenient(I often use this way...) 
# df[row, column]
compensation[, 2]

## # A tibble: 40 x 1
##    Fruit
##    <dbl>
##  1  59.8
##  2  61.0
##  3  14.7
##  4  19.3
##  5  34.2
##  6  35.5
##  7  87.7
##  8  63.2
##  9  24.2
## 10  64.3
## #  with 30 more rows

compensation[, -2]

## # A tibble: 40 x 2
##     Root Grazing 
##    <dbl> <fct>   
##  1  6.22 Ungrazed
##  2  6.49 Ungrazed
##  3  4.92 Ungrazed
##  4  5.13 Ungrazed
##  5  5.42 Ungrazed
##  6  5.36 Ungrazed
##  7  7.61 Ungrazed
##  8  6.35 Ungrazed
##  9  4.97 Ungrazed
## 10  6.93 Ungrazed
## #  with 30 more rows
…
# add new column
# mutate()
compensation <- dplyr::mutate(compensation, logFruit = log2(Fruit))
compensation

## # A tibble: 40 x 4
##     Root Fruit Grazing  logFruit
##    <dbl> <dbl> <fct>       <dbl>
##  1  6.22  59.8 Ungrazed     5.90
##  2  6.49  61.0 Ungrazed     5.93
##  3  4.92  14.7 Ungrazed     3.88
##  4  5.13  19.3 Ungrazed     4.27
##  5  5.42  34.2 Ungrazed     5.10
##  6  5.36  35.5 Ungrazed     5.15
##  7  7.61  87.7 Ungrazed     6.45
##  8  6.35  63.2 Ungrazed     5.98
##  9  4.97  24.2 Ungrazed     4.60
## 10  6.93  64.3 Ungrazed     6.01
## #  with 30 more rows
…
## # A tibble: 2 x 3
##   Grazing  mean_fruit sd_fruit
##   <fct>         <dbl>    <dbl>
## 1 Ungrazed       50.9     21.8
## 2 Grazed         67.9     25.0

##################
# Exercise
# diamonds data set
diamonds

## # A tibble: 53,940 x 10
##    carat cut       color clarity depth table price     x     y     z
##    <dbl> <ord>     <ord> <ord>   <dbl> <dbl> <int> <dbl> <dbl> <dbl>
##  1 0.23  Ideal     E     SI2      61.5    55   326  3.95  3.98  2.43
##  2 0.21  Premium   E     SI1      59.8    61   326  3.89  3.84  2.31
##  3 0.23  Good      E     VS1      56.9    65   327  4.05  4.07  2.31
##  4 0.290 Premium   I     VS2      62.4    58   334  4.2   4.23  2.63
##  5 0.31  Good      J     SI2      63.3    58   335  4.34  4.35  2.75
##  6 0.24  Very Good J     VVS2     62.8    57   336  3.94  3.96  2.48
##  7 0.24  Very Good I     VVS1     62.3    57   336  3.95  3.98  2.47
##  8 0.26  Very Good H     SI1      61.9    55   337  4.07  4.11  2.53
##  9 0.22  Fair      E     VS2      65.1    61   337  3.87  3.78  2.49
## 10 0.23  Very Good H     VS1      59.4    61   338  4     4.05  2.39
## #  with 53,930 more rows

# get carat and price rows
select(diamonds, carat, price)

## # A tibble: 53,940 x 2
##    carat price
##    <dbl> <int>
##  1 0.23    326
##  2 0.21    326
##  3 0.23    327
##  4 0.290   334
##  5 0.31    335
##  6 0.24    336
##  7 0.24    336
##  8 0.26    337
##  9 0.22    337
## 10 0.23    338
## #  with 53,930 more rows

# use %>% 
diamonds %>% select(carat, price)

## # A tibble: 53,940 x 2
##    carat price
##    <dbl> <int>
##  1 0.23    326
##  2 0.21    326
##  3 0.23    327
##  4 0.290   334
##  5 0.31    335
##  6 0.24    336
##  7 0.24    336
##  8 0.26    337
##  9 0.22    337
## 10 0.23    338
## #  with 53,930 more rows

diamonds %>% select(1, 7)

## # A tibble: 53,940 x 2
##    carat price
##    <dbl> <int>
##  1 0.23    326
##  2 0.21    326
##  3 0.23    327
##  4 0.290   334
##  5 0.31    335
##  6 0.24    336
##  7 0.24    336
##  8 0.26    337
##  9 0.22    337
## 10 0.23    338
## #  with 53,930 more rows

# starts_with(), ends_with(), contains()
diamonds %>% select(starts_with("c"))

## # A tibble: 53,940 x 4
##    carat cut       color clarity
##    <dbl> <ord>     <ord> <ord>  
##  1 0.23  Ideal     E     SI2    
##  2 0.21  Premium   E     SI1    
##  3 0.23  Good      E     VS1    
##  4 0.290 Premium   I     VS2    
##  5 0.31  Good      J     SI2    
##  6 0.24  Very Good J     VVS2   
##  7 0.24  Very Good I     VVS1   
##  8 0.26  Very Good H     SI1    
##  9 0.22  Fair      E     VS2    
## 10 0.23  Very Good H     VS1    
## #  with 53,930 more rows

diamonds %>% select(ends_with("e"))

## # A tibble: 53,940 x 2
##    table price
##    <dbl> <int>
##  1    55   326
##  2    61   326
##  3    65   327
##  4    58   334
##  5    58   335
##  6    57   336
##  7    57   336
##  8    55   337
##  9    61   337
## 10    61   338
## #  with 53,930 more rows

diamonds %>% select(contains("l"))

## # A tibble: 53,940 x 3
##    color clarity table
##    <ord> <ord>   <dbl>
##  1 E     SI2        55
##  2 E     SI1        61
##  3 E     VS1        65
##  4 I     VS2        58
##  5 J     SI2        58
##  6 J     VVS2       57
##  7 I     VVS1       57
##  8 H     SI1        55
##  9 E     VS2        61
## 10 H     VS1        61
## #  with 53,930 more rows

diamonds %>% select(-c(carat, price))

## # A tibble: 53,940 x 8
##    cut       color clarity depth table     x     y     z
##    <ord>     <ord> <ord>   <dbl> <dbl> <dbl> <dbl> <dbl>
##  1 Ideal     E     SI2      61.5    55  3.95  3.98  2.43
##  2 Premium   E     SI1      59.8    61  3.89  3.84  2.31
##  3 Good      E     VS1      56.9    65  4.05  4.07  2.31
##  4 Premium   I     VS2      62.4    58  4.2   4.23  2.63
##  5 Good      J     SI2      63.3    58  4.34  4.35  2.75
##  6 Very Good J     VVS2     62.8    57  3.94  3.96  2.48
##  7 Very Good I     VVS1     62.3    57  3.95  3.98  2.47
##  8 Very Good H     SI1      61.9    55  4.07  4.11  2.53
##  9 Fair      E     VS2      65.1    61  3.87  3.78  2.49
## 10 Very Good H     VS1      59.4    61  4     4.05  2.39
## #  with 53,930 more rows

diamonds %>% select(-c(1, 7))

## # A tibble: 53,940 x 8
##    cut       color clarity depth table     x     y     z
##    <ord>     <ord> <ord>   <dbl> <dbl> <dbl> <dbl> <dbl>
##  1 Ideal     E     SI2      61.5    55  3.95  3.98  2.43
##  2 Premium   E     SI1      59.8    61  3.89  3.84  2.31
##  3 Good      E     VS1      56.9    65  4.05  4.07  2.31
##  4 Premium   I     VS2      62.4    58  4.2   4.23  2.63
##  5 Good      J     SI2      63.3    58  4.34  4.35  2.75
##  6 Very Good J     VVS2     62.8    57  3.94  3.96  2.48
##  7 Very Good I     VVS1     62.3    57  3.95  3.98  2.47
##  8 Very Good H     SI1      61.9    55  4.07  4.11  2.53
##  9 Fair      E     VS2      65.1    61  3.87  3.78  2.49
## 10 Very Good H     VS1      59.4    61  4     4.05  2.39
## #  with 53,930 more rows

diamonds %>% filter(cut == "Ideal")

## # A tibble: 21,551 x 10
##    carat cut   color clarity depth table price     x     y     z
##    <dbl> <ord> <ord> <ord>   <dbl> <dbl> <int> <dbl> <dbl> <dbl>
##  1  0.23 Ideal E     SI2      61.5    55   326  3.95  3.98  2.43
##  2  0.23 Ideal J     VS1      62.8    56   340  3.93  3.9   2.46
##  3  0.31 Ideal J     SI2      62.2    54   344  4.35  4.37  2.71
##  4  0.3  Ideal I     SI2      62      54   348  4.31  4.34  2.68
##  5  0.33 Ideal I     SI2      61.8    55   403  4.49  4.51  2.78
##  6  0.33 Ideal I     SI2      61.2    56   403  4.49  4.5   2.75
##  7  0.33 Ideal J     SI1      61.1    56   403  4.49  4.55  2.76
##  8  0.23 Ideal G     VS1      61.9    54   404  3.93  3.95  2.44
##  9  0.32 Ideal I     SI1      60.9    55   404  4.45  4.48  2.72
## 10  0.3  Ideal I     SI2      61      59   405  4.3   4.33  2.63
## #  with 21,541 more rows

# why below results an error?
# diamonds %>% filter(cut = "Ideal")

diamonds %>% filter(cut == "Ideal" | cut == "Good")

## # A tibble: 26,457 x 10
##    carat cut   color clarity depth table price     x     y     z
##    <dbl> <ord> <ord> <ord>   <dbl> <dbl> <int> <dbl> <dbl> <dbl>
##  1  0.23 Ideal E     SI2      61.5    55   326  3.95  3.98  2.43
##  2  0.23 Good  E     VS1      56.9    65   327  4.05  4.07  2.31
##  3  0.31 Good  J     SI2      63.3    58   335  4.34  4.35  2.75
##  4  0.3  Good  J     SI1      64      55   339  4.25  4.28  2.73
##  5  0.23 Ideal J     VS1      62.8    56   340  3.93  3.9   2.46
##  6  0.31 Ideal J     SI2      62.2    54   344  4.35  4.37  2.71
##  7  0.3  Ideal I     SI2      62      54   348  4.31  4.34  2.68
##  8  0.3  Good  J     SI1      63.4    54   351  4.23  4.29  2.7 
##  9  0.3  Good  J     SI1      63.8    56   351  4.23  4.26  2.71
## 10  0.3  Good  I     SI2      63.3    56   351  4.26  4.3   2.71
## #  with 26,447 more rows

diamonds %>% filter(cut %in% c("Ideal", "Good"))

## # A tibble: 26,457 x 10
##    carat cut   color clarity depth table price     x     y     z
##    <dbl> <ord> <ord> <ord>   <dbl> <dbl> <int> <dbl> <dbl> <dbl>
##  1  0.23 Ideal E     SI2      61.5    55   326  3.95  3.98  2.43
##  2  0.23 Good  E     VS1      56.9    65   327  4.05  4.07  2.31
##  3  0.31 Good  J     SI2      63.3    58   335  4.34  4.35  2.75
##  4  0.3  Good  J     SI1      64      55   339  4.25  4.28  2.73
##  5  0.23 Ideal J     VS1      62.8    56   340  3.93  3.9   2.46
##  6  0.31 Ideal J     SI2      62.2    54   344  4.35  4.37  2.71
##  7  0.3  Ideal I     SI2      62      54   348  4.31  4.34  2.68
##  8  0.3  Good  J     SI1      63.4    54   351  4.23  4.29  2.7 
##  9  0.3  Good  J     SI1      63.8    56   351  4.23  4.26  2.71
## 10  0.3  Good  I     SI2      63.3    56   351  4.26  4.3   2.71
## #  with 26,447 more rows

diamonds %>% filter(price >= 1000)

## # A tibble: 39,441 x 10
##    carat cut       color clarity depth table price     x     y     z
##    <dbl> <ord>     <ord> <ord>   <dbl> <dbl> <int> <dbl> <dbl> <dbl>
##  1  0.7  Ideal     E     SI1      62.5    57  2757  5.7   5.72  3.57
##  2  0.86 Fair      E     SI2      55.1    69  2757  6.45  6.33  3.52
##  3  0.7  Ideal     G     VS2      61.6    56  2757  5.7   5.67  3.5 
##  4  0.71 Very Good E     VS2      62.4    57  2759  5.68  5.73  3.56
##  5  0.78 Very Good G     SI2      63.8    56  2759  5.81  5.85  3.72
##  6  0.7  Good      E     VS2      57.5    58  2759  5.85  5.9   3.38
##  7  0.7  Good      F     VS1      59.4    62  2759  5.71  5.76  3.4 
##  8  0.96 Fair      F     SI2      66.3    62  2759  6.27  5.95  4.07
##  9  0.73 Very Good E     SI1      61.6    59  2760  5.77  5.78  3.56
## 10  0.8  Premium   H     SI1      61.5    58  2760  5.97  5.93  3.66
## #  with 39,431 more rows
…
